{
    "builders": [{
     "type": "amazon-ebs",
     "source_ami_filter": {
       "filters": {
         "virtualization-type": "hvm",
         "name": "ubuntu/images/*ubuntu-xenial-16.04-amd64-server-*",
         "root-device-type": "ebs"
       },
       "owners": ["099720109477"],
       "most_recent": true
     },
     "instance_type": "t2.micro",
     "ssh_username": "ubuntu",
     "ami_name": "packer-example {{timestamp}}"
   }
],

"provisioners": [
   {
       "type": "file",
       "source": "./Banner.txt",
       "destination": "/home/ubuntu/"
   },
   {
       "type": "shell",
       "inline":[
           "ls -al /home/ubuntu",
           "cat /home/ubuntu/welcome.txt"
       ]
   },
   {
       "type": "shell",
       "script": "./Test.sh"
   }
]

 }